Modern Statistical Computing
…
By default the output is a .gif. You can choose other formats (e.g. an MPEG video) by calling animate before saving

p= ggplot(mydata, ...)  #code to produce the animation
animate(p, renderer = ffmpeg_renderer())
anim_save(myfile.gif, animation=last_animation(), path="mydirectory")

Life expentancy data

Dataset gapminder in package gapminder

gapminder

# A tibble: 1,704 × 6
   country     continent  year lifeExp      pop gdpPercap
   <fct>       <fct>     <int>   <dbl>    <int>     <dbl>
 1 Afghanistan Asia       1952    28.8  8425333      779.
 2 Afghanistan Asia       1957    30.3  9240934      821.
 3 Afghanistan Asia       1962    32.0 10267083      853.
 4 Afghanistan Asia       1967    34.0 11537966      836.
 5 Afghanistan Asia       1972    36.1 13079460      740.
 6 Afghanistan Asia       1977    38.4 14880372      786.
 7 Afghanistan Asia       1982    39.9 12881816      978.
 8 Afghanistan Asia       1987    40.8 13867957      852.
 9 Afghanistan Asia       1992    41.7 16317921      649.
10 Afghanistan Asia       1997    41.8 22227415      635.
# … with 1,694 more rows
…
Exercise

Load the Gini dataset at the course’s GitHub site.

library(gganimate)
#library(gifski)  #you may need this in Windows and Mac
gini= as_tibble(read.csv("~/github/statcomp/datasets/gini.csv"))
gini

# A tibble: 624 × 4
   Entity    Code   Year  Gini
   <chr>     <chr> <int> <dbl>
 1 Argentina ARG    1961  38.8
 2 Argentina ARG    1972  32.7
 3 Argentina ARG    1974  32.7
 4 Argentina ARG    1980  38.1
 5 Argentina ARG    1986  41.1
 6 Argentina ARG    1987  43.7
 7 Argentina ARG    1988  44.3
 8 Argentina ARG    1991  44.8
 9 Argentina ARG    1992  43  
10 Argentina ARG    1993  42.4
# … with 614 more rows
…
