Modern Statistical Computing
…
Before doing data analysis you need to put data in the right format, define variables etc.

R offers a number of base functions

Tidyverse package dplyr adds many convenient functions

Dataset NYC flights

All 336,776 flights departing from New York in 2013. We display a few rows (type View(flights) to open the full data in RStudio)

The data are stored in a tibble, an extension of data.frame that prints nicer and shows some info: int means integer, dbl real numbers, chr character vectors,lgl logical, fctr factor, date dates, dttm date-time

flights

# A tibble: 336,776 × 19
    year month   day dep_time sched_de…¹ dep_d…² arr_t…³ sched…⁴ arr_d…⁵ carrier
   <int> <int> <int>    <int>      <int>   <dbl>   <int>   <int>   <dbl> <chr>  
 1  2013     1     1      517        515       2     830     819      11 UA     
 2  2013     1     1      533        529       4     850     830      20 UA     
 3  2013     1     1      542        540       2     923     850      33 AA     
 4  2013     1     1      544        545      -1    1004    1022     -18 B6     
 5  2013     1     1      554        600      -6     812     837     -25 DL     
 6  2013     1     1      554        558      -4     740     728      12 UA     
 7  2013     1     1      555        600      -5     913     854      19 B6     
 8  2013     1     1      557        600      -3     709     723     -14 EV     
 9  2013     1     1      557        600      -3     838     846      -8 B6     
10  2013     1     1      558        600      -2     753     745       8 AA     
# … with 336,766 more rows, 9 more variables: flight <int>, tailnum <chr>,
#   origin <chr>, dest <chr>, air_time <dbl>, distance <dbl>, hour <dbl>,
#   minute <dbl>, time_hour <dttm>, and abbreviated variable names
#   ¹​sched_dep_time, ²​dep_delay, ³​arr_time, ⁴​sched_arr_time, ⁵​arr_delay
…
Select variables by their names: select()

Create new variables: mutate()

Compute numerical summaries: summarise(). If used with group_by(), it operates by groups

Other functions: rename, transmute

Filter

jan1= filter(flights, month == 1, day == 1)
jan1

# A tibble: 842 × 19
    year month   day dep_time sched_de…¹ dep_d…² arr_t…³ sched…⁴ arr_d…⁵ carrier
   <int> <int> <int>    <int>      <int>   <dbl>   <int>   <int>   <dbl> <chr>  
 1  2013     1     1      517        515       2     830     819      11 UA     
 2  2013     1     1      533        529       4     850     830      20 UA     
 3  2013     1     1      542        540       2     923     850      33 AA     
 4  2013     1     1      544        545      -1    1004    1022     -18 B6     
 5  2013     1     1      554        600      -6     812     837     -25 DL     
 6  2013     1     1      554        558      -4     740     728      12 UA     
 7  2013     1     1      555        600      -5     913     854      19 B6     
 8  2013     1     1      557        600      -3     709     723     -14 EV     
 9  2013     1     1      557        600      -3     838     846      -8 B6     
10  2013     1     1      558        600      -2     753     745       8 AA     
# … with 832 more rows, 9 more variables: flight <int>, tailnum <chr>,
#   origin <chr>, dest <chr>, air_time <dbl>, distance <dbl>, hour <dbl>,
#   minute <dbl>, time_hour <dttm>, and abbreviated variable names
#   ¹​sched_dep_time, ²​dep_delay, ³​arr_time, ⁴​sched_arr_time, ⁵​arr_delay

Filter

jan1= filter(flights, month == 1 & day == 1)
jan1

# A tibble: 842 × 19
    year month   day dep_time sched_de…¹ dep_d…² arr_t…³ sched…⁴ arr_d…⁵ carrier
   <int> <int> <int>    <int>      <int>   <dbl>   <int>   <int>   <dbl> <chr>  
 1  2013     1     1      517        515       2     830     819      11 UA     
 2  2013     1     1      533        529       4     850     830      20 UA     
 3  2013     1     1      542        540       2     923     850      33 AA     
 4  2013     1     1      544        545      -1    1004    1022     -18 B6     
 5  2013     1     1      554        600      -6     812     837     -25 DL     
 6  2013     1     1      554        558      -4     740     728      12 UA     
 7  2013     1     1      555        600      -5     913     854      19 B6     
 8  2013     1     1      557        600      -3     709     723     -14 EV     
 9  2013     1     1      557        600      -3     838     846      -8 B6     
10  2013     1     1      558        600      -2     753     745       8 AA     
# … with 832 more rows, 9 more variables: flight <int>, tailnum <chr>,
#   origin <chr>, dest <chr>, air_time <dbl>, distance <dbl>, hour <dbl>,
#   minute <dbl>, time_hour <dttm>, and abbreviated variable names
#   ¹​sched_dep_time, ²​dep_delay, ³​arr_time, ⁴​sched_arr_time, ⁵​arr_delay

Data frames and matrices

data.frame
matrix

flightsdf= as.data.frame(flights)
class(flightsdf)

[1] "data.frame"

filter(flights, month == 1 & day == 1)

# A tibble: 842 × 19
    year month   day dep_time sched_de…¹ dep_d…² arr_t…³ sched…⁴ arr_d…⁵ carrier
   <int> <int> <int>    <int>      <int>   <dbl>   <int>   <int>   <dbl> <chr>  
 1  2013     1     1      517        515       2     830     819      11 UA     
 2  2013     1     1      533        529       4     850     830      20 UA     
 3  2013     1     1      542        540       2     923     850      33 AA     
 4  2013     1     1      544        545      -1    1004    1022     -18 B6     
 5  2013     1     1      554        600      -6     812     837     -25 DL     
 6  2013     1     1      554        558      -4     740     728      12 UA     
 7  2013     1     1      555        600      -5     913     854      19 B6     
 8  2013     1     1      557        600      -3     709     723     -14 EV     
 9  2013     1     1      557        600      -3     838     846      -8 B6     
10  2013     1     1      558        600      -2     753     745       8 AA     
# … with 832 more rows, 9 more variables: flight <int>, tailnum <chr>,
#   origin <chr>, dest <chr>, air_time <dbl>, distance <dbl>, hour <dbl>,
#   minute <dbl>, time_hour <dttm>, and abbreviated variable names
#   ¹​sched_dep_time, ²​dep_delay, ³​arr_time, ⁴​sched_arr_time, ⁵​arr_delay
…
# A tibble: 2 × 1
      x
  <dbl>
1    NA
2     3

Arrange

You can sort by several variables

arrange(flights, year, month, day)

# A tibble: 336,776 × 19
    year month   day dep_time sched_de…¹ dep_d…² arr_t…³ sched…⁴ arr_d…⁵ carrier
   <int> <int> <int>    <int>      <int>   <dbl>   <int>   <int>   <dbl> <chr>  
 1  2013     1     1      517        515       2     830     819      11 UA     
 2  2013     1     1      533        529       4     850     830      20 UA     
 3  2013     1     1      542        540       2     923     850      33 AA     
 4  2013     1     1      544        545      -1    1004    1022     -18 B6     
 5  2013     1     1      554        600      -6     812     837     -25 DL     
 6  2013     1     1      554        558      -4     740     728      12 UA     
 7  2013     1     1      555        600      -5     913     854      19 B6     
 8  2013     1     1      557        600      -3     709     723     -14 EV     
 9  2013     1     1      557        600      -3     838     846      -8 B6     
10  2013     1     1      558        600      -2     753     745       8 AA     
# … with 336,766 more rows, 9 more variables: flight <int>, tailnum <chr>,
#   origin <chr>, dest <chr>, air_time <dbl>, distance <dbl>, hour <dbl>,
#   minute <dbl>, time_hour <dttm>, and abbreviated variable names
#   ¹​sched_dep_time, ²​dep_delay, ³​arr_time, ⁴​sched_arr_time, ⁵​arr_delay

To sort in a descending fashion use desc

arrange(flights, desc(year), desc(month), desc(day))

# A tibble: 336,776 × 19
    year month   day dep_time sched_de…¹ dep_d…² arr_t…³ sched…⁴ arr_d…⁵ carrier
   <int> <int> <int>    <int>      <int>   <dbl>   <int>   <int>   <dbl> <chr>  
 1  2013    12    31       13       2359      14     439     437       2 B6     
 2  2013    12    31       18       2359      19     449     444       5 DL     
 3  2013    12    31       26       2245     101     129    2353      96 B6     
 4  2013    12    31      459        500      -1     655     651       4 US     
 5  2013    12    31      514        515      -1     814     812       2 UA     
 6  2013    12    31      549        551      -2     925     900      25 UA     
 7  2013    12    31      550        600     -10     725     745     -20 AA     
 8  2013    12    31      552        600      -8     811     826     -15 EV     
 9  2013    12    31      553        600      -7     741     754     -13 DL     
10  2013    12    31      554        550       4    1024    1027      -3 B6     
# … with 336,766 more rows, 9 more variables: flight <int>, tailnum <chr>,
#   origin <chr>, dest <chr>, air_time <dbl>, distance <dbl>, hour <dbl>,
#   minute <dbl>, time_hour <dttm>, and abbreviated variable names
#   ¹​sched_dep_time, ²​dep_delay, ³​arr_time, ⁴​sched_arr_time, ⁵​arr_delay

R’s base order

o= order(flights$year, flights$month, flights$day, decreasing=TRUE)
flights[o,]

# A tibble: 336,776 × 19
    year month   day dep_time sched_de…¹ dep_d…² arr_t…³ sched…⁴ arr_d…⁵ carrier
   <int> <int> <int>    <int>      <int>   <dbl>   <int>   <int>   <dbl> <chr>  
 1  2013    12    31       13       2359      14     439     437       2 B6     
 2  2013    12    31       18       2359      19     449     444       5 DL     
 3  2013    12    31       26       2245     101     129    2353      96 B6     
 4  2013    12    31      459        500      -1     655     651       4 US     
 5  2013    12    31      514        515      -1     814     812       2 UA     
 6  2013    12    31      549        551      -2     925     900      25 UA     
 7  2013    12    31      550        600     -10     725     745     -20 AA     
 8  2013    12    31      552        600      -8     811     826     -15 EV     
 9  2013    12    31      553        600      -7     741     754     -13 DL     
10  2013    12    31      554        550       4    1024    1027      -3 B6     
# … with 336,766 more rows, 9 more variables: flight <int>, tailnum <chr>,
#   origin <chr>, dest <chr>, air_time <dbl>, distance <dbl>, hour <dbl>,
#   minute <dbl>, time_hour <dttm>, and abbreviated variable names
#   ¹​sched_dep_time, ²​dep_delay, ³​arr_time, ⁴​sched_arr_time, ⁵​arr_delay

Select

Selecting a subset of variables

select(flights, year, month, day, dep_delay)

# A tibble: 336,776 × 4
    year month   day dep_delay
   <int> <int> <int>     <dbl>
 1  2013     1     1         2
 2  2013     1     1         4
 3  2013     1     1         2
 4  2013     1     1        -1
 5  2013     1     1        -6
 6  2013     1     1        -4
 7  2013     1     1        -5
 8  2013     1     1        -3
 9  2013     1     1        -3
10  2013     1     1        -2
# … with 336,766 more rows

Useful functions to select variables by name

starts_with(“abc”): matches names that begin with “abc”

ends_with(“abc”): matches names that end with “abc”

contains(“abc”): matches names that contain “abc”

num_range(“x”, 1:3): matches x1, x2 and x3.

select(flights, contains("delay"))

# A tibble: 336,776 × 2
   dep_delay arr_delay
       <dbl>     <dbl>
 1         2        11
 2         4        20
 3         2        33
 4        -1       -18
 5        -6       -25
 6        -4        12
 7        -5        19
 8        -3       -14
 9        -3        -8
10        -2         8
# … with 336,766 more rows

Trick to put some columns at the start. Select them, then use everything

select(flights, time_hour, air_time, everything())

# A tibble: 336,776 × 19
   time_hour           air_t…¹  year month   day dep_t…² sched…³ dep_d…⁴ arr_t…⁵
   <dttm>                <dbl> <int> <int> <int>   <int>   <int>   <dbl>   <int>
 1 2013-01-01 05:00:00     227  2013     1     1     517     515       2     830
 2 2013-01-01 05:00:00     227  2013     1     1     533     529       4     850
 3 2013-01-01 05:00:00     160  2013     1     1     542     540       2     923
 4 2013-01-01 05:00:00     183  2013     1     1     544     545      -1    1004
 5 2013-01-01 06:00:00     116  2013     1     1     554     600      -6     812
 6 2013-01-01 05:00:00     150  2013     1     1     554     558      -4     740
 7 2013-01-01 06:00:00     158  2013     1     1     555     600      -5     913
 8 2013-01-01 06:00:00      53  2013     1     1     557     600      -3     709
 9 2013-01-01 06:00:00     140  2013     1     1     557     600      -3     838
10 2013-01-01 06:00:00     138  2013     1     1     558     600      -2     753
# … with 336,766 more rows, 10 more variables: sched_arr_time <int>,
#   arr_delay <dbl>, carrier <chr>, flight <int>, tailnum <chr>, origin <chr>,
#   dest <chr>, distance <dbl>, hour <dbl>, minute <dbl>, and abbreviated
#   variable names ¹​air_time, ²​dep_time, ³​sched_dep_time, ⁴​dep_delay, ⁵​arr_time

Rename

Change variable names

rename(flights, deptime = dep_time)

# A tibble: 336,776 × 19
    year month   day deptime sched_dep…¹ dep_d…² arr_t…³ sched…⁴ arr_d…⁵ carrier
   <int> <int> <int>   <int>       <int>   <dbl>   <int>   <int>   <dbl> <chr>  
 1  2013     1     1     517         515       2     830     819      11 UA     
 2  2013     1     1     533         529       4     850     830      20 UA     
 3  2013     1     1     542         540       2     923     850      33 AA     
 4  2013     1     1     544         545      -1    1004    1022     -18 B6     
 5  2013     1     1     554         600      -6     812     837     -25 DL     
 6  2013     1     1     554         558      -4     740     728      12 UA     
 7  2013     1     1     555         600      -5     913     854      19 B6     
 8  2013     1     1     557         600      -3     709     723     -14 EV     
 9  2013     1     1     557         600      -3     838     846      -8 B6     
10  2013     1     1     558         600      -2     753     745       8 AA     
# … with 336,766 more rows, 9 more variables: flight <int>, tailnum <chr>,
#   origin <chr>, dest <chr>, air_time <dbl>, distance <dbl>, hour <dbl>,
#   minute <dbl>, time_hour <dttm>, and abbreviated variable names
#   ¹​sched_dep_time, ²​dep_delay, ³​arr_time, ⁴​sched_arr_time, ⁵​arr_delay

Mutate

We select a subset of columns and create 2 new ones

flights_sml= select(flights, year:day, contains("delay"), distance, air_time)

mutate(flights_sml, gain=dep_delay - arr_delay, speed = distance / air_time * 60)

# A tibble: 336,776 × 9
    year month   day dep_delay arr_delay distance air_time  gain speed
   <int> <int> <int>     <dbl>     <dbl>    <dbl>    <dbl> <dbl> <dbl>
 1  2013     1     1         2        11     1400      227    -9  370.
 2  2013     1     1         4        20     1416      227   -16  374.
 3  2013     1     1         2        33     1089      160   -31  408.
 4  2013     1     1        -1       -18     1576      183    17  517.
 5  2013     1     1        -6       -25      762      116    19  394.
 6  2013     1     1        -4        12      719      150   -16  288.
 7  2013     1     1        -5        19     1065      158   -24  404.
 8  2013     1     1        -3       -14      229       53    11  259.
 9  2013     1     1        -3        -8      944      140     5  405.
10  2013     1     1        -2         8      733      138   -10  319.
# … with 336,766 more rows

To only keep the new variables use transmute

transmute(flights, gain = dep_delay - arr_delay, hours = air_time / 60)

# A tibble: 336,776 × 2
    gain hours
   <dbl> <dbl>
 1    -9 3.78 
 2   -16 3.78 
 3   -31 2.67 
 4    17 3.05 
 5    19 1.93 
 6   -16 2.5  
 7   -24 2.63 
 8    11 0.883
 9     5 2.33 
10   -10 2.3  
# … with 336,766 more rows
…
aaflight= flights$carrier == 'AA'
finearr[aaflight]= 150 * flights$arr_delay[aaflight]/60
finearr[!aaflight] = 200 * flights$arr_delay[!aaflight]/60
finearr[finearr<0]= 0

flights$fine= finedep + finearr

Let’s inspect the results

select(flights, carrier, dep_delay, arr_delay, fine)

# A tibble: 336,776 × 4
   carrier dep_delay arr_delay  fine
   <chr>       <dbl>     <dbl> <dbl>
 1 UA              2        11  39.2
 2 UA              4        20  71.7
 3 AA              2        33  85.8
 4 B6             -1       -18   0  
 5 DL             -6       -25   0  
 6 UA             -4        12  40  
 7 B6             -5        19  63.3
 8 EV             -3       -14   0  
 9 B6             -3        -8   0  
10 AA             -2         8  20  
# … with 336,766 more rows
…
Summarizing by groups

dplyr has two key functions: summarise and group_by

by_day= group_by(flights, year, month, day) #create new (grouped) tibble
summarise(by_day, delay = mean(dep_delay, na.rm = TRUE))

# A tibble: 365 × 4
# Groups:   year, month [12]
    year month   day delay
   <int> <int> <int> <dbl>
 1  2013     1     1 11.5 
 2  2013     1     2 13.9 
 3  2013     1     3 11.0 
 4  2013     1     4  8.95
 5  2013     1     5  5.73
 6  2013     1     6  7.15
 7  2013     1     7  5.42
 8  2013     1     8  2.55
 9  2013     1     9  2.28
10  2013     1    10  2.84
# … with 355 more rows
…
Flight distance vs. delay, for each destination airport with >20 flights other than Honolulu. Note the use of n()

R code
Plot

by_dest= group_by(flights, dest)
delay= summarise(by_dest, count = n(),
  dist = mean(distance, na.rm = TRUE),
  delay = mean(arr_delay, na.rm = TRUE)
)
delay= filter(delay, count > 20, dest != "HNL") #>20 flights, remove Hololulu
delay

# A tibble: 96 × 4
   dest  count  dist delay
   <chr> <int> <dbl> <dbl>
 1 ABQ     254 1826   4.38
 2 ACK     265  199   4.85
 3 ALB     439  143  14.4 
 4 ATL   17215  757. 11.3 
 5 AUS    2439 1514.  6.02
 6 AVL     275  584.  8.00
 7 BDL     443  116   7.05
 8 BGR     375  378   8.03
 9 BHM     297  866. 16.9 
10 BNA    6333  758. 11.8 
# … with 86 more rows
…
Same using pipes

Avoid creating intermediate datasets (by_dest in the previous slide)

delays= flights |>
  group_by(dest) |> 
  summarise(count = n(),
    dist = mean(distance, na.rm = TRUE),
    delay = mean(arr_delay, na.rm = TRUE)
  ) |> 
  filter(count > 20, dest != "HNL")
delays

# A tibble: 96 × 4
   dest  count  dist delay
   <chr> <int> <dbl> <dbl>
 1 ABQ     254 1826   4.38
 2 ACK     265  199   4.85
 3 ALB     439  143  14.4 
 4 ATL   17215  757. 11.3 
 5 AUS    2439 1514.  6.02
 6 AVL     275  584.  8.00
 7 BDL     443  116   7.05
 8 BGR     375  378   8.03
 9 BHM     297  866. 16.9 
10 BNA    6333  758. 11.8 
# … with 86 more rows
Useful summaries

Classical: mean, sd, sum, min, max

Robust to outliers: median, mad, quantile, IQR

Counts: n, sum(is.na()), n_distinct()

Example: number of flights with early departure (<5:00am)

flights |>
  group_by(year, month, day) |>
  summarise(n_early = sum(dep_time < 500, na.rm=TRUE))

# A tibble: 365 × 4
# Groups:   year, month [12]
    year month   day n_early
   <int> <int> <int>   <int>
 1  2013     1     1       0
 2  2013     1     2       3
 3  2013     1     3       4
 4  2013     1     4       3
 5  2013     1     5       3
 6  2013     1     6       2
 7  2013     1     7       2
 8  2013     1     8       1
 9  2013     1     9       3
10  2013     1    10       3
# … with 355 more rows

Ungrouping

daily= group_by(flights, year, month, day)
summarise(daily, flights = n())

# A tibble: 365 × 4
# Groups:   year, month [12]
    year month   day flights
   <int> <int> <int>   <int>
 1  2013     1     1     842
 2  2013     1     2     943
 3  2013     1     3     914
 4  2013     1     4     915
 5  2013     1     5     720
 6  2013     1     6     832
 7  2013     1     7     933
 8  2013     1     8     899
 9  2013     1     9     902
10  2013     1    10     932
# … with 355 more rows
…
