Modern Statistical Computing
…
fandango

# A tibble: 146 × 23
   film       year rottentomatoes rottentomatoes_user metacritic metacritic_user
   <chr>     <dbl>          <int>               <int>      <int>           <dbl>
 1 Avengers…  2015             74                  86         66             7.1
 2 Cinderel…  2015             85                  80         67             7.5
 3 Ant-Man    2015             80                  90         64             8.1
 4 Do You B…  2015             18                  84         22             4.7
 5 Hot Tub …  2015             14                  28         29             3.4
 6 The Wate…  2015             63                  62         50             6.8
 7 Irration…  2015             42                  53         53             7.6
 8 Top Five   2014             86                  64         81             6.8
 9 Shaun th…  2015             99                  82         81             8.8
10 Love & M…  2015             89                  87         80             8.5
# ℹ 136 more rows
# ℹ 17 more variables: imdb <dbl>, fandango_stars <dbl>,
#   fandango_ratingvalue <dbl>, rt_norm <dbl>, rt_user_norm <dbl>,
#   metacritic_norm <dbl>, metacritic_user_nom <dbl>, imdb_norm <dbl>,
#   rt_norm_round <dbl>, rt_user_norm_round <dbl>, metacritic_norm_round <dbl>,
#   metacritic_user_norm_round <dbl>, imdb_norm_round <dbl>,
#   metacritic_user_vote_count <int>, imdb_user_vote_count <int>, …
…
