Modern Statistical Computing
…
Displaying the predictions

data_grid in package modelr

mygrid= data_grid(diamonds2, cut, color, clarity, .model=lmfit2)
mygrid

# A tibble: 280 × 4
   cut   color clarity lcarat
   <fct> <fct> <fct>    <dbl>
 1 Fair  D     I1      -0.515
 2 Fair  D     SI2     -0.515
 3 Fair  D     SI1     -0.515
 4 Fair  D     VS2     -0.515
 5 Fair  D     VS1     -0.515
 6 Fair  D     VVS2    -0.515
 7 Fair  D     VVS1    -0.515
 8 Fair  D     IF      -0.515
 9 Fair  E     I1      -0.515
10 Fair  E     SI2     -0.515
# … with 270 more rows

lmpred2= add_predictions(mygrid, model=lmfit2)
lmpred2

# A tibble: 280 × 5
   cut   color clarity lcarat  pred
   <fct> <fct> <fct>    <dbl> <dbl>
 1 Fair  D     I1      -0.515  10.4
 2 Fair  D     SI2     -0.515  11.0
 3 Fair  D     SI1     -0.515  11.2
 4 Fair  D     VS2     -0.515  11.4
 5 Fair  D     VS1     -0.515  11.5
 6 Fair  D     VVS2    -0.515  11.7
 7 Fair  D     VVS1    -0.515  11.8
 8 Fair  D     IF      -0.515  12.0
 9 Fair  E     I1      -0.515  10.3
10 Fair  E     SI2     -0.515  10.9
# … with 270 more rows
…
