Modern Statistical Computing
…
(Intercept)         cyl        disp          hp        drat          wt 
     15.573      -0.279       0.015      -0.021       0.815      -3.944 
       qsec          vs          am 
      0.810       0.368       2.794 

Sampling distribution of \(\hat{\theta}\)

Format the data into a long tibble, so we can use faceting

colnames(bhat.fit$t)= names(bhat.fit$t0)
bhat.boot= as_tibble(bhat.fit$t)
bhat.boot

# A tibble: 2,000 × 9
   `(Intercept)`    cyl    disp        hp    drat    wt  qsec     vs     am
           <dbl>  <dbl>   <dbl>     <dbl>   <dbl> <dbl> <dbl>  <dbl>  <dbl>
 1         13.6  -0.265 0.00737 -0.0244   -0.731  -1.78 0.936 -0.505  4.11 
 2        -24.5  -0.777 0.00986  0.0197    3.12   -5.09 2.93  -5.41   0.161
 3         20.2  -0.307 0.0124  -0.0303    1.31   -2.35 0.259  2.19   1.86 
 4          9.64  0.575 0.0227  -0.0298   -0.0175 -6.48 1.40  -0.764  4.61 
 5          6.42 -0.899 0.0403  -0.0185   -1.01   -7.24 2.15  -3.09   5.38 
 6          4.40  0.225 0.0226  -0.0130    1.86   -5.22 1.06   1.27   3.16 
 7          4.08 -0.902 0.0123  -0.0103    0.866  -3.46 1.58  -2.42   3.73 
 8         29.8  -2.19  0.0209  -0.000674  1.20   -4.47 0.588 -1.31  -1.16 
 9        -22.7   1.56  0.0189  -0.0351    4.76   -3.70 1.44   0.975  6.87 
10         13.2  -0.223 0.0256  -0.0194    0.779  -5.59 1.04   0.721  2.84 
# ℹ 1,990 more rows

bhat.bootlong= pivot_longer(bhat.boot, cols= names(bhat.boot), names_to="variable", values_to="bootstrap_value")
bhat.bootlong

# A tibble: 18,000 × 2
   variable    bootstrap_value
   <chr>                 <dbl>
 1 (Intercept)        13.6    
 2 cyl                -0.265  
 3 disp                0.00737
 4 hp                 -0.0244 
 5 drat               -0.731  
 6 wt                 -1.78   
 7 qsec                0.936  
 8 vs                 -0.505  
 9 am                  4.11   
10 (Intercept)       -24.5    
# ℹ 17,990 more rows
…
