Modern Statistical Computing
…
Strictly concave, if \(X\) has full column rank (\(X^TX\) invertible)

Many efficient numerical optimization algorithms

Example. Spam filter

The dataset email (package openintro) has \(n=3921\) emails

\(y_i\): email is spam yes/no

\(x_i\): \(p=20\) covariates (number of characters, whether email had “Re:” in the subject etc.)

email

# A tibble: 3,921 × 21
   spam  to_multiple from     cc sent_email time                image attach
   <fct> <fct>       <fct> <int> <fct>      <dttm>              <dbl>  <dbl>
 1 0     0           1         0 0          2012-01-01 07:16:41     0      0
 2 0     0           1         0 0          2012-01-01 08:03:59     0      0
 3 0     0           1         0 0          2012-01-01 17:00:32     0      0
 4 0     0           1         0 0          2012-01-01 10:09:49     0      0
 5 0     0           1         0 0          2012-01-01 11:00:01     0      0
 6 0     0           1         0 0          2012-01-01 11:04:46     0      0
 7 0     1           1         0 1          2012-01-01 18:55:06     0      0
 8 0     1           1         1 1          2012-01-01 19:45:21     1      1
 9 0     0           1         0 0          2012-01-01 22:08:59     0      0
10 0     0           1         0 0          2012-01-01 19:12:00     0      0
# ℹ 3,911 more rows
# ℹ 13 more variables: dollar <dbl>, winner <fct>, inherit <dbl>, viagra <dbl>,
#   password <dbl>, num_char <dbl>, line_breaks <int>, format <fct>,
#   re_subj <fct>, exclaim_subj <dbl>, urgent_subj <fct>, exclaim_mess <dbl>,
#   number <fct>
…
Marginal plots

Display effect of 1 covariate, keeping others constant

expit= function(x) 1/(1+exp(-x)) #inverse of logit function
fitpred= data_grid(email, num_char, .model=fit) |>
  add_predictions(fit) |>
  mutate(predprob= expit(pred))
fitpred

# A tibble: 3,362 × 4
   num_char re_subj  pred predprob
      <dbl> <chr>   <dbl>    <dbl>
 1    0.001 0       -1.45    0.190
 2    0.003 0       -1.45    0.190
 3    0.004 0       -1.45    0.190
 4    0.006 0       -1.45    0.190
 5    0.007 0       -1.45    0.190
 6    0.008 0       -1.45    0.190
 7    0.015 0       -1.45    0.190
 8    0.021 0       -1.45    0.190
 9    0.025 0       -1.45    0.190
10    0.031 0       -1.45    0.190
# ℹ 3,352 more rows
…
Then fit the model as usual

fitnum= glm(spam ~ num_char + re_subj1, data=emailnum, family=binomial()) 

m= mean(emailnum$re_subj1)
fitpred= data_grid(emailnum, num_char, re_subj1=m, .model=fitnum) |>
  add_predictions(fitnum)
fitpred$predprob= expit(fitpred$pred)
fitpred

# A tibble: 3,362 × 4
   num_char re_subj1  pred predprob
      <dbl>    <dbl> <dbl>    <dbl>
 1    0.001    0.261 -2.22   0.0976
 2    0.003    0.261 -2.22   0.0976
 3    0.004    0.261 -2.22   0.0976
 4    0.006    0.261 -2.22   0.0976
 5    0.007    0.261 -2.22   0.0975
 6    0.008    0.261 -2.22   0.0975
 7    0.015    0.261 -2.23   0.0975
 8    0.021    0.261 -2.23   0.0975
 9    0.025    0.261 -2.23   0.0974
10    0.031    0.261 -2.23   0.0974
# ℹ 3,352 more rows
…
Is the interaction statistically significant (at the usual 0.05 level)?

Plot the estimated spam probability vs. numchar and re_subj. Does it look similar to the predictions from the model with no interaction? (previous slides)

Turn in an html with your solution here. Name your file firstname_lastname.html

Getting started

library(tidyverse)
library(openintro)
source("../code/routines.R")
email

# A tibble: 3,921 × 21
   spam  to_multiple from     cc sent_email time                image attach
   <fct> <fct>       <fct> <int> <fct>      <dttm>              <dbl>  <dbl>
 1 0     0           1         0 0          2012-01-01 07:16:41     0      0
 2 0     0           1         0 0          2012-01-01 08:03:59     0      0
 3 0     0           1         0 0          2012-01-01 17:00:32     0      0
 4 0     0           1         0 0          2012-01-01 10:09:49     0      0
 5 0     0           1         0 0          2012-01-01 11:00:01     0      0
 6 0     0           1         0 0          2012-01-01 11:04:46     0      0
 7 0     1           1         0 1          2012-01-01 18:55:06     0      0
 8 0     1           1         1 1          2012-01-01 19:45:21     1      1
 9 0     0           1         0 0          2012-01-01 22:08:59     0      0
10 0     0           1         0 0          2012-01-01 19:12:00     0      0
# ℹ 3,911 more rows
# ℹ 13 more variables: dollar <dbl>, winner <fct>, inherit <dbl>, viagra <dbl>,
#   password <dbl>, num_char <dbl>, line_breaks <int>, format <fct>,
#   re_subj <fct>, exclaim_subj <dbl>, urgent_subj <fct>, exclaim_mess <dbl>,
#   number <fct>
…
total: number of people living in household other than the head (poverty indicator)

location: region where household is located

age: age of household head

numLT5: number in the household <5 years old

roof: type of roof (Light/Salvaged Material, Strong Material)

fHH= as_tibble(read.table("../datasets/fHH1.txt", header=TRUE))
fHH

# A tibble: 1,500 × 5
   location       age total numLT5 roof           
   <chr>        <int> <int>  <int> <chr>          
 1 CentralLuzon    65     0      0 Strong Material
 2 MetroManila     75     3      0 Strong Material
 3 DavaoRegion     54     4      0 Strong Material
 4 Visayas         49     3      0 Strong Material
 5 MetroManila     74     3      0 Strong Material
 6 Visayas         59     6      0 Strong Material
 7 MetroManila     54     5      0 Strong Material
 8 Visayas         41     5      0 Strong Material
 9 Visayas         50     6      0 Strong Material
10 CentralLuzon    59     4      0 Strong Material
# ℹ 1,490 more rows
…
Data pre-processing

Age has a non-linear effect. Two simple options

Discretize it in (say) 5 year groups

Add a quadratic effect

fHH= mutate(fHH, aged= cut_width(age, 5), age2= age^2)
fHH

# A tibble: 1,500 × 7
   location       age total numLT5 roof            aged         age2
   <chr>        <int> <int>  <int> <chr>           <fct>       <dbl>
 1 CentralLuzon    65     0      0 Strong Material (62.5,67.5]  4225
 2 MetroManila     75     3      0 Strong Material (72.5,77.5]  5625
 3 DavaoRegion     54     4      0 Strong Material (52.5,57.5]  2916
 4 Visayas         49     3      0 Strong Material (47.5,52.5]  2401
 5 MetroManila     74     3      0 Strong Material (72.5,77.5]  5476
 6 Visayas         59     6      0 Strong Material (57.5,62.5]  3481
 7 MetroManila     54     5      0 Strong Material (52.5,57.5]  2916
 8 Visayas         41     5      0 Strong Material (37.5,42.5]  1681
 9 Visayas         50     6      0 Strong Material (47.5,52.5]  2500
10 CentralLuzon    59     4      0 Strong Material (57.5,62.5]  3481
# ℹ 1,490 more rows
…
Provide a point estimate and a 95% interval for the ratio of expected crimes in university / college, that is \[
\frac{E(y_i \mid x_{i1}=U, x_{i2},\ldots,x_{ip})}{E(y_i \mid x_{i1}=C, x_{i2},\ldots,x_{ip})}
\]

Is there evidence for over-dispersion? If so, use an over-dispersion adjustment to obtain valid 95% intervals. Do you obtain different conclusions as to whether type has a statistically significant effect?

Getting started

library(tidyverse)
source("../code/routines.R")
crime= as_tibble(read.table("../datasets/campuscrime.txt", header=TRUE, sep="\t"))
crime

# A tibble: 81 × 4
   type     nv enroll1000 region
   <chr> <int>      <dbl> <chr> 
 1 U        30       5.59 SE    
 2 C         0       0.54 SE    
 3 U        23      35.7  W     
 4 C         1      28.2  W     
 5 U         1      10.6  SW    
 6 U         0       3.13 SW    
 7 U         7      20.7  W     
 8 C         0      12.5  W     
 9 U        19      30.1  C     
10 C         4       4.43 C     
# ℹ 71 more rows
