Modern Statistical Computing
…
Example

 (data from Lander’s R for everyone, from NYC Open Data 

\(n=2,626\) condos in different New York boroughs (2011-12)

Outcome: value per square foot (ValuePerSqFt)

10 covariates: neighborhood, year built etc.

housing= read_csv("../datasets/housing.csv")
housing

# A tibble: 2,626 × 11
   Neighborh…¹ Class Units YearB…²   SqFt Incom…³ Expen…⁴ NetIn…⁵  Value Value…⁶
   <chr>       <chr> <dbl>   <dbl>  <dbl>   <dbl>   <dbl>   <dbl>  <dbl>   <dbl>
 1 FINANCIAL   R9-C…    42    1920  36500    36.5    9.37  9.91e5 7.3 e6    200 
 2 FINANCIAL   R4-C…    78    1985 126420    52.5   13.9   4.87e6 3.07e7    243.
 3 FINANCIAL   RR-C…   500      NA 554174    31.2    6.39  1.38e7 9.10e7    164.
 4 FINANCIAL   R4-C…   282    1930 249076    47.3   11.2   8.99e6 6.76e7    271.
 5 TRIBECA     R4-C…   239    1985 219495    45.6   12.7   7.22e6 5.43e7    247.
 6 TRIBECA     R4-C…   133    1986 139719    36.7   10.7   3.63e6 2.67e7    191.
 7 TRIBECA     R4-C…   109    1985 105000    41.6   12.1   3.09e6 2.22e7    212.
 8 TRIBECA     R4-C…   107    1986  87479    41.6   12.1   2.58e6 1.94e7    222.
 9 TRIBECA     R4-C…   247    1987 255845    44.0    9.54  8.81e6 6.63e7    259.
10 TRIBECA     R4-C…   121    1985 106129    38.8   11.6   2.88e6 2.18e7    206.
# … with 2,616 more rows, 1 more variable: Boro <chr>, and abbreviated variable
#   names ¹​Neighborhood, ²​YearBuilt, ³​IncomePerSqFt, ⁴​ExpensePerSqFt,
#   ⁵​NetIncome, ⁶​ValuePerSqFt
…
email= transform(email, spam= as.numeric(as.character(spam))) #convert outcome to numeric 0/1 values
allbics= bestBIC(spam ~ to_multiple+from+cc+sent_email+image+attach+dollar+winner, data=email, family="binomial")

Enumerating models...
Computing posterior probabilities........... Done.

allbics

$topmodel
[1] "to_multiple1" "from1"        "sent_email1"  "image"        "attach"      
[6] "dollar"       "winneryes"   

$models
# A tibble: 512 × 2
   modelid             bic
   <chr>             <dbl>
 1 2,3,5,6,7,8,9     2032.
 2 1,2,3,5,6,7,8,9   2036.
 3 2,3,4,5,6,7,8,9   2040.
 4 1,2,5,6,7,8,9     2040.
 5 1,2,3,4,5,6,7,8,9 2044.
 6 1,2,4,5,6,7,8,9   2047.
 7 2,3,5,6,7,8       2051.
 8 2,3,5,6,7,9       2053.
 9 1,2,3,5,6,7,8     2055.
10 1,2,3,5,6,7,9     2057.
# … with 502 more rows
…
