Modern Statistical Computing
…
Gender, instrument…

Goal: how does stress depend on emotionality, accounting for other covariates?

Issue: data clearly non-independent

musicdata.txt has several diary entries for each musician (id). In total, 497 performances by 37 musicians

#convert id to factor, center mpqnem, create Large ensembl indicator
music= as_tibble(read.table("../datasets/musicdata.txt", header=TRUE)) |>
  mutate(id= factor(id), mpqnem= mpqnem-mean(mpqnem), audience= ifelse(perform_type=='Large Ensemble', "large", "small")) |>
  relocate(id, diary, na, mpqnem, audience)
music

# A tibble: 497 × 17
   id    diary    na mpqnem audience previous perfor…¹ memory    pa   age gender
   <fct> <int> <int>  <dbl> <chr>       <int> <chr>    <chr>  <int> <int> <chr> 
 1 1         1    11  -15.6 small           0 Solo     Unspe…    40    18 Female
 2 1         2    19  -15.6 large           1 Large E… Memory    33    18 Female
 3 1         3    14  -15.6 large           2 Large E… Memory    49    18 Female
 4 1         4    19  -15.6 small           3 Solo     Memory    41    18 Female
 5 1         5    10  -15.6 small           4 Solo     Memory    31    18 Female
 6 1         6    13  -15.6 small           5 Solo     Memory    33    18 Female
 7 1         7    11  -15.6 small           6 Solo     Memory    34    18 Female
 8 1         8    13  -15.6 small           7 Solo     Memory    43    18 Female
 9 1         9    10  -15.6 small           8 Solo     Score     34    18 Female
10 1        10    10  -15.6 small           9 Solo     Score     45    18 Female
# … with 487 more rows, 6 more variables: instrument <chr>, years_study <int>,
#   mpqab <int>, mpqsr <int>, mpqpem <int>, mpqcon <int>, and abbreviated
#   variable name ¹​perform_type
…
Step 1 coefficients are interpreted as usual

Intercept: average musician stress (for reference category)

Small ensembl/Solo: increased stress for small/solo peformance

Step 2: regress estimates from Step 1 on level 2 covariate (negative emotionality)

b1= unique(select(music, id, mpqnem)) |>
  left_join(b1, by='id')
b1

# A tibble: 37 × 4
   id    mpqnem Intercept  small
   <fct>  <dbl>     <dbl>  <dbl>
 1 1     -15.6       16.5 -4.96 
 2 2     -10.6       17   -3.46 
 3 3     -10.6       12    1.71 
 4 5       8.37      20   -2.18 
 5 6      -5.63      11.8  1.25 
 6 7      12.4       16.4  3.2  
 7 8      15.4       15.8  0.292
 8 9      -7.63      18   -0.875
 9 10     -4.63      13.2  1.1  
10 12      8.37      14.7  4.43 
# … with 27 more rows
…
