Modern Statistical Computing
…
All covariates

Trick: re-format data and facet by covariate

pred

# A tibble: 546 × 10
      ypred Cl.thickness Cell.size Cell.shape Marg.adhesion Epith.c.size
      <dbl>        <dbl>     <dbl>      <dbl>         <dbl>        <dbl>
 1 2.74e-12       -0.157   -0.375     -0.407        -0.639        -0.555
 2 1   e+ 0        0.198    2.23       2.27          2.50          3.04 
 3 5.82e-13       -0.511   -0.702     -0.741        -0.639        -0.555
 4 9.95e- 1       -0.866    0.603     -0.0720        0.0593        1.24 
 5 9.14e-16       -1.22    -0.702     -0.741        -0.639        -0.555
 6 2.94e-10        0.198   -0.702     -0.741        -0.639        -0.555
 7 2.27e-13       -1.22    -0.375     -0.741         0.0593       -0.555
 8 1.00e+ 0        0.198   -0.0492     0.263        -0.639         2.14 
 9 1   e+ 0        1.97     2.23       2.27         -0.290         3.04 
10 9.98e- 1        1.62     0.603      0.597        -0.290        -0.555
# ℹ 536 more rows
# ℹ 4 more variables: Bare.nuclei <dbl>, Bl.cromatin <dbl>,
#   Normal.nucleoli <dbl>, Mitoses <dbl>
…
