Modern Statistical Computing
…
All covariates

Trick: re-format data and facet by covariate

pred

# A tibble: 546 × 10
      ypred Cl.thickness Cell.…¹ Cell.…² Marg.…³ Epith…⁴ Bare.…⁵ Bl.cr…⁶ Norma…⁷
      <dbl>        <dbl>   <dbl>   <dbl>   <dbl>   <dbl>   <dbl>   <dbl>   <dbl>
 1 4.67e-14       -0.511 -0.702  -0.741  -0.639   -0.555  -0.698  -0.590 -0.612 
 2 1.79e-17       -1.22  -0.702  -0.741  -0.639   -0.555  -0.698  -0.590 -0.612 
 3 5.42e-13       -0.511 -0.702  -0.741  -0.639   -0.555  -0.698  -0.590 -0.612 
 4 1.00e+ 0        0.198  0.930   0.932  -0.290    0.344   1.77   -0.182  1.03  
 5 1   e+ 0        0.907  1.58   -0.0720  1.46     0.344   0.399   1.45   1.68  
 6 1.00e+ 0        1.26   1.26    0.932   0.408    0.344   1.77    0.635 -0.612 
 7 1   e+ 0       -0.157  0.930   0.932   0.757    1.69    0.674   1.45   1.35  
 8 2.04e-10        0.198 -0.702  -0.741  -0.639   -0.555  -0.698  -0.590 -0.612 
 9 3.69e-10       -0.157 -0.0492 -0.0720 -0.639   -0.555  -0.698  -0.182  0.0427
10 1   e+ 0        1.26   2.23    0.597   0.0593   2.14    0.125   0.227  2.34  
# … with 536 more rows, 1 more variable: Mitoses <dbl>, and abbreviated
#   variable names ¹​Cell.size, ²​Cell.shape, ³​Marg.adhesion, ⁴​Epith.c.size,
#   ⁵​Bare.nuclei, ⁶​Bl.cromatin, ⁷​Normal.nucleoli
…
